Project 1: Wrangling, Exploration, Visualization
…
## # A tibble: 6 x 4
##   `Country or Area` `Internet Users` Population  Rank
##   <chr>                        <dbl>      <dbl> <dbl>
## 1 China                    765367947 1409517397     1
## 2 India                    461347554 1339180127     2
## 3 United States            244090854  324459463     3
## 4 Brazil                   141206801  209288278     4
## 5 Japan                    115845120  127484450     5
## 6 Russia                   109446612  143989754     6

country %>% pivot_wider(names_from = "Region", values_from = "Population") %>% 
    pivot_longer(19:29, names_to = "Region", values_to = "Population", 
        values_drop_na = T)

## # A tibble: 227 x 20
##    Country `Area (sq. mi.)` `Pop. Density ( `Coastline (coa `Net migration`
##    <chr>              <dbl> <chr>            <chr>            <chr>          
##  1 Afghan           647500 48,0             0,00             23,06          
##  2 Albania            28748 124,6            1,26             -4,93          
##  3 Algeria          2381740 13,8             0,04             -0,39          
##  4 Americ              199 290,4            58,29            -20,71         
##  5 Andorra              468 152,1            0,00             6,6            
##  6 Angola           1246700 9,7              0,13             0              
##  7 Anguil              102 132,1            59,80            10,76          
##  8 Antigu              443 156,0            34,54            -6,15          
##  9 Argent          2766890 14,4             0,18             0,61           
## 10 Armenia            29800 99,9             0,00             -6,47          
## #  with 217 more rows, and 15 more variables: `Infant mortality (per 1000
## #   births)` <dbl>, `GDP ($ per capita)` <dbl>, `Literacy (%)` <dbl>, `Phones
## #   (per 1000)` <chr>, `Arable (%)` <chr>, `Crops (%)` <chr>, `Other
## #   (%)` <dbl>, Climate <dbl>, Birthrate <dbl>, Deathrate <dbl>,
## #   Agriculture <chr>, Industry <chr>, Service <chr>, Region <chr>,
## #   Population <dbl>
…
nrow(internetusers)

## [1] 215

internetusers %>% summarize(n_distinct(`Country or Area`))

## # A tibble: 1 x 1
##   `n_distinct(\`Country or Area\`)`
##                               <int>
## 1                               215

anti_join(country, internetusers, by = c(Country = "Country or Area"))

## # A tibble: 36 x 20
##    Country Region Population `Area (sq. mi.)` `Pop. Density ( `Coastline (coa
##    <chr>   <chr>       <dbl>            <dbl> <chr>            <chr>           
##  1 Americ OCEAN      57794              199 290,4            58,29           
##  2 Antigu LATIN      69108              443 156,0            34,54           
##  3 Bahama LATIN     303770            13940 21,8             25,41           
##  4 Bosnia EASTE    4498976            51129 88,0             0,04            
##  5 Britis LATIN      23098              153 151,0            52,29           
##  6 Burma   ASIA    47382633           678500 69,8             0,28            
##  7 Cape V SUB-S     420979             4033 104,4            23,93           
##  8 Centra SUB-S    4303356           622984 6,9              0,00            
##  9 Congo, SUB-S   62660551          2345410 26,7             0,00            
## 10 Congo, SUB-S    3702314           342000 10,8             0,05            
## #  with 26 more rows, and 14 more variables: `Net migration` <chr>, `Infant
## #   mortality (per 1000 births)` <dbl>, `GDP ($ per capita)` <dbl>, `Literacy
## #   (%)` <dbl>, `Phones (per 1000)` <chr>, `Arable (%)` <chr>, `Crops
## #   (%)` <chr>, `Other (%)` <dbl>, Climate <dbl>, Birthrate <dbl>,
## #   Deathrate <dbl>, Agriculture <chr>, Industry <chr>, Service <chr>

anti_join(internetusers, country, by = c(`Country or Area` = "Country"))

## # A tibble: 24 x 4
##    `Country or Area`                `Internet Users` Population  Rank
##    <chr>                                       <dbl>      <dbl> <dbl>
##  1 South Korea                              48484084   50982212    16
##  2 Myanmar                                  16374103   53370609    40
##  3 Ivory Coast                              10650818   24294750    48
##  4 Democratic Republic of the Congo          7011507   81339988    66
##  5 Palestinian Authority                     3208312    4920724    99
##  6 Bosnia and Herzegovina                    2437026    3507017   109
##  7 Trinidad and Tobago                       1058744    1369125   134
##  8 South Sudan                               1003542   12575714   136
##  9 Republic of the Congo                      455055    5260750   152
## 10 Montenegro                                 448260     628960   154
## #  with 14 more rows
…
data %>% mutate(birth_to_death_ratio = Birthrate/Deathrate)

## # A tibble: 191 x 24
##    Country Region Population.x `Area (sq. mi.)` `Pop. Density (
##    <chr>   <chr>         <dbl>            <dbl> <chr>           
##  1 Afghan ASIA      31056997           647500 48,0            
##  2 Albania EASTE      3581655            28748 124,6           
##  3 Algeria NORTH     32930091          2381740 13,8            
##  4 Andorra WESTE        71201              468 152,1           
##  5 Angola  SUB-S     12127071          1246700 9,7             
##  6 Anguil LATIN        13477              102 132,1           
##  7 Argent LATIN     39921833          2766890 14,4            
##  8 Armenia C.W.       2976372            29800 99,9            
##  9 Aruba   LATIN        71891              193 372,5           
## 10 Austra OCEAN     20264082          7686850 2,6             
## #  with 181 more rows, and 19 more variables: `Coastline (coast/area
## #   ratio)` <chr>, `Net migration` <chr>, `Infant mortality (per 1000
## #   births)` <dbl>, `GDP ($ per capita)` <dbl>, `Literacy (%)` <dbl>, `Phones
## #   (per 1000)` <chr>, `Arable (%)` <chr>, `Crops (%)` <chr>, `Other
## #   (%)` <dbl>, Climate <dbl>, Birthrate <dbl>, Deathrate <dbl>,
## #   Agriculture <chr>, Industry <chr>, Service <chr>, `Internet Users` <dbl>,
## #   Population.y <dbl>, Rank <dbl>, birth_to_death_ratio <dbl>

data %>% mutate(Region = str_replace_all(Region, "ASIA.+", "ASIA"))

## # A tibble: 191 x 23
##    Country Region Population.x `Area (sq. mi.)` `Pop. Density (
##    <chr>   <chr>         <dbl>            <dbl> <chr>           
##  1 Afghan ASIA       31056997           647500 48,0            
##  2 Albania EASTE      3581655            28748 124,6           
##  3 Algeria NORTH     32930091          2381740 13,8            
##  4 Andorra WESTE        71201              468 152,1           
##  5 Angola  SUB-S     12127071          1246700 9,7             
##  6 Anguil LATIN        13477              102 132,1           
##  7 Argent LATIN     39921833          2766890 14,4            
##  8 Armenia C.W.       2976372            29800 99,9            
##  9 Aruba   LATIN        71891              193 372,5           
## 10 Austra OCEAN     20264082          7686850 2,6             
## #  with 181 more rows, and 18 more variables: `Coastline (coast/area
## #   ratio)` <chr>, `Net migration` <chr>, `Infant mortality (per 1000
## #   births)` <dbl>, `GDP ($ per capita)` <dbl>, `Literacy (%)` <dbl>, `Phones
## #   (per 1000)` <chr>, `Arable (%)` <chr>, `Crops (%)` <chr>, `Other
## #   (%)` <dbl>, Climate <dbl>, Birthrate <dbl>, Deathrate <dbl>,
## #   Agriculture <chr>, Industry <chr>, Service <chr>, `Internet Users` <dbl>,
## #   Population.y <dbl>, Rank <dbl>
…
